150:120
fill:0:0:149:119:#:Gray:Black:
outline:0:0:149:119:Black:White:
outline:5:5:105:105:Black:White:
fill:6:6:104:104: :White:Black:
outline:110:10:122:22:Black:White:
fill:111:11:121:21: :White:Black:
window:6:6:104:104:
window:111:11:121:21:
text:124:16: :White:Blue:Item 1: